%YAML 1.1
%TAG !u! tag:unity3d.com,2011:
--- !u!1045 &1
EditorBuildSettings:
  m_ObjectHideFlags: 0
  serializedVersion: 2
  m_Scenes:
  - enabled: 0
    path: 
    guid: 00000000000000000000000000000000
  - enabled: 1
    path: Assets/Scenes/MainMenu.unity
    guid: b7575ccc51a7c8a4f82c54946d6f837e
  - enabled: 1
    path: Assets/Scenes/Level1-Tank.unity
    guid: 857f4a92684df904d9cc5b818b03cd14
  m_configObjects: {}
