%YAML 1.1
%TAG !u! tag:unity3d.com,2011:
--- !u!114 &11400000
MonoBehaviour:
  m_ObjectHideFlags: 0
  m_CorrespondingSourceObject: {fileID: 0}
  m_PrefabInstance: {fileID: 0}
  m_PrefabAsset: {fileID: 0}
  m_GameObject: {fileID: 0}
  m_Enabled: 1
  m_EditorHideFlags: 0
  m_Script: {fileID: 11500000, guid: e51d65a1c51118c418084c2474f07796, type: 3}
  m_Name: Pistol
  m_EditorClassIdentifier: 
  damage: 10
  range: 100
  impactForce: 30
  impactClip: {fileID: 0}
  shootSounds: []
  impactEffect: {fileID: 0}
  GUIimage: {fileID: 0}
  primary: 0
  isHeavy: 0
  bullet: {fileID: 0}
